bangladesh_2019-01-01_1	11
catalonia_2019-06-01_1	76
china_2019-08-20_1	699
china_2019-08-20_2	191
china_2019-08-20_3	385
china_2019-08-20_4	314
china_2019-08-20_5	4301
china_2020-05-20_1	23749
ecuador_2019-08-20_1	787
egypt_2019-08-20_1	240
egypt_2020-02-20_1	1065725
ghana_2020-03-20_1	60
honduras_2020-02-20_1	3007
indonesia_2020-02-20_1	716
iran_2018-10-01_1	660
iran_2019-01-01_1	536
iran_2019-01-01_2	1610
iran_2019-01-01_3	1868
iran_2019-01-01_4	2035
iran_2019-06-01_1	389
iran_2019-06-01_2	210
iran_2019-06-01_3	2519
russia_2018-10-01_1	3479
russia_2019-06-01_1	2
russia_2019-08-20_1	361
russia_2020-05-20_1	747
russia_2020-05-20_2	267
saudi_2019-08-20_1	6
saudi_2019-11-20_1	300604
saudi_2019-11-20_2	247676
saudi_2019-11-20_3	2312
saudi_2019-11-20_4	198235
saudi_2019-11-20_5	1801
saudi_2019-11-20_6	333812
saudi_2019-11-20_7	804
saudi_2019-11-20_8	763
saudi_2019-11-20_9	886
serbia_2020-02-20_10	2563
serbia_2020-02-20_11	2512
serbia_2020-02-20_12	203271
serbia_2020-02-20_13	946
serbia_2020-02-20_1	4174
serbia_2020-02-20_2	4557
serbia_2020-02-20_3	4249
serbia_2020-02-20_4	4499
serbia_2020-02-20_5	4323
serbia_2020-02-20_6	3776
serbia_2020-02-20_7	3331
serbia_2020-02-20_8	3083
serbia_2020-02-20_9	2802
spain_2019-08-20_1	216
turkey_2020-05-20_10	1951
turkey_2020-05-20_11	2566
turkey_2020-05-20_12	2324
turkey_2020-05-20_13	265685
turkey_2020-05-20_14	196772
turkey_2020-05-20_15	272570
turkey_2020-05-20_16	1426
turkey_2020-05-20_1	10
turkey_2020-05-20_2	26
turkey_2020-05-20_3	95
turkey_2020-05-20_4	233
turkey_2020-05-20_5	517
turkey_2020-05-20_6	961
turkey_2020-05-20_7	1235
turkey_2020-05-20_8	1267
turkey_2020-05-20_9	1895
uae_2019-08-20_1	3658
venezuela_2019-01-01_1	335
venezuela_2019-01-01_2	700
venezuela_2019-01-01_3	829
venezuela_2019-06-01_1	33
venezuela_2019-08-20_1	578
yemen_2020-02-20_10	610610
yemen_2020-02-20_1	103812
yemen_2020-02-20_2	87393
yemen_2020-02-20_3	103283
yemen_2020-02-20_4	109580
yemen_2020-02-20_5	203416
yemen_2020-02-20_6	374595
yemen_2020-02-20_7	226279
yemen_2020-02-20_8	248193
yemen_2020-02-20_9	278764
