1046648155293589500	"1538375340661"	"@damarisd94 @rodriguezthita Your rich hoe"	"en"	32196910	"Rob🤘🏽"	"ImJustRobert_"	
1046648155301793800	"1538375340663"	"RT @tobilou: lol buff baby https://t.co/DHsBS9CqZ1"	"en"	2237077260	"🌸Tay in Orbit🌸"	"OrbitTheNCTzens"	
1046648155314372600	"1538375340666"	"RT @ManishTewari: Between April 2014 &amp;April 2018, 21 State-owned banks ended up writing off Rs 3,16,500 crore of loans even as they recover…"	"en"	1027862731674669000	"Akhilesh Yadav"	"Akhiles61290691"	
1046648155293569000	"1538375340661"	"@Mr_Mpho Looking good"	"en"	259155864	"Sh0rtie"	"seapei08"	
1046648155293593600	"1538375340661"	"RT @RenegadePlayboy: If she makes flirty eye contact - and if you think she is then she probably *is* - then you owe it to both of you to w…"	"en"	941312949288804400	"José Hernández"	"JosHern20484191"	
1046648155289342000	"1538375340660"	"RT @JayGalxby: He should be arrested for this https://t.co/lueJD6moOV"	"en"	1733568979	"kj."	"kjov_"	
1046648155301982200	"1538375340663"	"@gigiii_12 You don’t deserve anything because you deserve everything n more beauty 💕"	"en"	1919030700	"🦋🦋🦋"	"miah__g"	
1046648155301974000	"1538375340663"	"Dying 🤣🤣🤣🤣 “Dua, please!!!”"	"en"	356791197	"アニータ ダス"	"TheDasAnita"	
1046648155306168300	"1538375340664"	"RT @ruckin_: ITS OFFICIALLY OCTOBER!!! https://t.co/LOmc30xbQI"	"en"	3300813774	"Cole🔥™"	"ColtonMillet"	
1046648155293585400	"1538375340661"	"@SolomonKarori2 I won't dare"	"en"	730278218608066600	"Omwana O' Seba ~Vinny"	"BosireVincent2"	
1046648159487713300	"1538375341661"	"RT @Armys__Crew: People's Choice Awards truly still one of the biggest American award ceremony and BTS got recognized for their MUSIC &amp; nom…"	"en"	1014201477399642100	"Adorable Representative💜"	"MC_For_Youth"	
1046648159504453600	"1538375341665"	"@theonlymelissaa Yeah my colored eyes stand out more 😅 I feel weird but I’ll get used to it . I’ll post pictures on snap tomorrow 😄"	"en"	3265887439	"Natalie💋"	"DollFaceNatalie"	
1046648159470989300	"1538375341657"	"RT @btsworIdwide: [YOUTUBE]\nBTS TOP 10 MVs ↑↓Daily\n#1 IDOL +1,697,973\n#2 Fake Love +1,089,648\n#3 DNA +1,041,988\n#4 MDR +822,300\n#5 FIRE +60…"	"en"	962659197706944500	"RiRiu🌸;"	"taepouch"	
1046648159475257300	"1538375341658"	"@Velmajinkies Absolutely fantastic. Love it. Beautiful gift. 👍❤🐻"	"en"	848141037063344100	"Stan☔ - Izak o.t.r.b 🌈💗"	"StanPic25845029"	
1046648159496220700	"1538375341663"	"RT @REALpunknews: Hardcore Conclave Meets to Decide Which Pop-Punk Bands Get a Pass https://t.co/NZ04wVHstp"	"en"	2351614859	"vomit boy"	"brodyrhamilton"	
1046648159487873000	"1538375341661"	"RT @HEYMARK_FUCKYOU: But if he can’t fuck 3 times a night.. https://t.co/AqNUKm0S3O"	"en"	559923717	"Kiara"	"MsKiara_"	
1046648163669442600	"1538375342658"	"You can't cure your own sufferings by making others suffers."	"en"	308353927	"Shinichi Kudo [H]"	"OfficialKudoS"	
1046648163694563300	"1538375342664"	"RT @danialzz__: people call me \"sombong\" when they didn’t try to talk with me."	"en"	1620711432	"qha"	"nrzlqhaa_"	
1046648163665293300	"1538375342657"	"RT @COLDGAMEKELV: My first time holding a sloth today 😭 https://t.co/1ONaGFILX7"	"en"	1016116351	"maya"	"mayarothhh"	
1046648159500476400	"1538375341664"	"A dramedy about an antiques store and creepy twins, with Adetomiwa Edun and Chloe Bennet."	"en"	3408098517	"Fake Film Meme"	"FakeFilmMeme"	
1046648163698761700	"1538375342665"	"RT @PETTYMAMII: ✨Tomorrow starts a new week, new month, new blessings... let’s get it. 🗣✨"	"en"	840811976213258200	"Z."	"z_boogieee"	
1046648163673804800	"1538375342659"	"Just posted a photo https://t.co/aAr6LVY6na"	"en"	936481868014239700	"Mica Imperial"	"imperial_mica78"	
1046648163682013200	"1538375342661"	"But they can find every woman on to every cave For Bill Cosby see the difference"	"en"	118166795	"MARK SHIELDS"	"ARTESIA13"	
1046648159471120400	"1538375341657"	"RT @xianonymity: legendary final curtain call (1st run) https://t.co/lWq6dQvArl"	"en"	279693006	"정수리"	"Marysabel507"	
1046648167872180200	"1538375343660"	"RT @LilBibby_: Just don’t lie"	"en"	2920327449	"Zack"	"zackasmussen43"	
1046648167880511500	"1538375343662"	"RT @poetastrologers: Week of 9/30 in Leo: Simply nothing but a rose so red will compel you. Nothing but the sunset will move you to answer…"	"en"	1951206427	"karyn"	"sheseekstyles"	
1046648167884681200	"1538375343663"	"RT @Ivan166374: Mfs be buying a 2003 Mercedes-Benz with over 100,000 miles and they swear they making money moves."	"en"	1697668855	"Omar"	"Omarmartinez_13"	
1046648167868043300	"1538375343659"	"Late Friday, according to Reuters, the EU set a 6 Nov deadline to decide on the Takeda-Shire deal."	"en"	92489756	"Mike van Dulken"	"Accendo_Mike"	
1046648167876513800	"1538375343661"	"RT @KasiVibeNamibia: A 🇳🇦 Namibian WIN 🥊🥊🥊🥊👍👍 https://t.co/5URBIxVkzO"	"en"	904436479581200400	"#IvysonTourWHK24November"	"QueenEsthertjie"	
1046648167889031200	"1538375343664"	"It is no longer reveals to view at a pocket on."	"en"	878636238	"Tjanting_ebooks"	"tjeeting"	
1046648167868104700	"1538375343659"	"I truly enjoy my silence 🤗❤️"	"en"	2907150585	"🦋"	"InErica_UTrust"	
1046648167863791600	"1538375343658"	"RT @YUNGBANS: I miss X :( ..."	"en"	1108216100	"dandys"	"Aleexjandroo"	
1046648167884890100	"1538375343663"	"RT @_pmxlxisane: If you're seasoning your meat in your kitchen sink, don't invite me over for anything. https://t.co/rBd76kQdOR"	"en"	915298423355641900	"Mbali"	"Mbaliii_m"	
1046648172087406600	"1538375344665"	"RT @MrTeddyTedster: We wanna prove a point.\nAre pets family?\n\nRT for yes\nLIKE for no"	"en"	625105269	"caitlyn"	"caitlynpopovich"	
1046648172087582700	"1538375344665"	"RT @a1fbgmn: new apartment, new job, new car, new life!!! claim it right now🤞🏽🙌🏽🙏🏽"	"en"	231291008	"Pink Bubble Gum"	"_SNAXX"	
1046648167868112900	"1538375343659"	"RT @JCHANW00_: BI: We were really honoured to be able to perform in such a huge event. Indonesia is a foreign country and we sang the song…"	"en"	966378089310597100	"greece"	"hanbinjune131"	
1046648167872311300	"1538375343660"	"RT @MefeaterM: Meagan Good 💕 https://t.co/RtsDQETra7"	"en"	269903588	"Dylan."	"JAY_aRRRRR"	
1046648176264937500	"1538375345661"	"RT @noviaini: - Xu Yiyang (1997) ex SM Rookies / SM trainee https://t.co/2nzN7ebwl4"	"en"	715218865643335700	"โชคดีตลอดๆ😀"	"KPlmamaza"	
1046648176277520400	"1538375345664"	"RT @minhotaemin_: Beware guys, kibum is watching😂😂😂😂 https://t.co/H9MLFNYUZi"	"en"	940888120806989800	"siska bella"	"siskabel"	
1046648176248311800	"1538375345657"	"@phildNTH Happy Birthday coach 🏉🎈🎈🎈"	"en"	1399878871	"Chris Hood"	"Chrishood57"	
1046648176256712700	"1538375345659"	"RT @Assassins_UK: Which side will you choose?\nSparta or Athens. \nYou decide. \n\nAssassin's Creed Odyssey, out 5th October.\nPre-order now fro…"	"en"	589835152	"GAME Exeter"	"GAMEExeter"	
1046648167868112900	"1538375343659"	"RT @JCHANW00_: BI: We were really honoured to be able to perform in such a huge event. Indonesia is a foreign country and we sang the song…"	"en"	966378089310597100	"greece"	"hanbinjune131"	
1046648176281772000	"1538375345665"	"RT @AisyahIlyana_AH: Do pray for us, Malaysian representative to Solar Decathlon Middle East competition in Dubai.... USIMxUTM\n@SDMEDubai…"	"en"	4410900372	"🎓💄"	"_najiiihah"	
1046648176281878500	"1538375345665"	"RT @ABC7Chicago: Grandfather spends retirement rocking sick babies in intensive care https://t.co/iT3Fgyl4rI https://t.co/HSPHX7T9MS"	"en"	1421005718	"LIGHT on"	"LIGHT_ON_144"	
1046648176286011400	"1538375345666"	"@LarissaHKnight You can but be warned it’s extremely temrental. Don’t get me wrong when it works it runs at a thous… https://t.co/pBq8bEoRPF"	"en"	997514959868321800	"SamDoddAuthor"	"AuthorDodd"	
1046648176286027800	"1538375345666"	"RT @IGN: We are Venom. https://t.co/9depiXRxZx"	"en"	916399174014459900	"drew!!"	"CollinsDrew17"	
1046648176269295600	"1538375345662"	"RT @LibDemEurope: Years from now queuing motorists will remember #Chequers fondly as a brave yet flawed attempt to limit frontier controls…"	"en"	2339424180	"South East Liberal Democrats"	"SELibDems"	
1046648176273489900	"1538375345663"	"RT @luxjoons: ⊱ the truth untold ⊰ \n\nthank you for this beautiful song  💞 @BTS_twt @steveaoki \n\n↻      ◁ II ▷     ↺ https://t.co/ELk5L8fYDd"	"en"	3414268901	"Taedeo Kim"	"tata_kim30"	
1046648180459237400	"1538375346661"	"RT @The_Ossso: Pinshes shishotas 🤤 https://t.co/h4jfeGHfXm"	"en"	893620704460931100	"Edwin Sandoval"	"eddwinsan"	
1046648180459298800	"1538375346661"	"RT @IntThings: Never announce your moves before you make them"	"en"	3365296121	"NKS"	"khalsyafiqa96"	
1046648180476076000	"1538375346665"	"RT @iSwoonforJoon: me every night when bts is having a concert that i’m not going to: https://t.co/WcXPPRl5iB"	"en"	967401146779287600	"♥︎"	"deukiii"	
1046648180467748900	"1538375346663"	"RT @juannisaac: my brain when I’m trying to sleep  https://t.co/k7fDYYXah6"	"en"	707870738	"Lesbian Doll 🌈♓️"	"Chucky_Unique"	
1046648180442521600	"1538375346657"	"RT @BrunoAmato_1: With a heavy heart I must share the news that @1sroberts \"Little Angel\" left us today. Stacey saved him 2 years ago and g…"	"en"	1635502688	"Lori Bedford"	"LoriBedford1"	
1046648180476018700	"1538375346665"	"@hunterj0597 Wait what time is fantastic"	"en"	936027478006493200	"Sammie D"	"SamDBumbleBee"	
1046648180467789800	"1538375346663"	"The best way to #Save big time on the brand name #tools that you want and need https://t.co/uFDXFQq7W6  https://t.co/jYQanavaBG"	"en"	507569734	"The End of Retail"	"frugalmaniac"	
1046648180455166000	"1538375346660"	"RT @RamIsRising: 😍Follow me &amp; everyone who retweets it."	"en"	2746269030	"ThefarahKhan"	"TheFarahKhan10"	
1046648180467802100	"1538375346663"	"RT @icmiist1: Step by step, we shall make Kampala safer for all of us. #School children safety is everyone's #business https://t.co/MjSoqqW…"	"en"	144786387	"Alicia Olago"	"MsOlago"	
1046648180480204800	"1538375346666"	"Fun night clips! #victory #hawaii #laSoon"	"en"	95649322	"Marcin Gortat🇵🇱"	"MGortat"	
1046648180459225100	"1538375346661"	"I just bought tickets for World Mental Health Day Ride. Why dont you join me? Get your tickets from… https://t.co/ceroSMBSsx"	"en"	3289548054	"Harimohan R"	"RHarimohan"	
1046648180476063700	"1538375346665"	"@Riality_TV I can try!!! 🔥🔥🔥 I'll be motivated if i see friends posts!!!"	"en"	557380831	"@Mai Mai"	"vkxmaimai"	
1046648176264925200	"1538375345661"	"Jiah's reaction when i shave pt 1 https://t.co/nu0GW0khb9"	"en"	101705640	"Berk"	"syafiqFairuz"	
1046648184653529100	"1538375347661"	"RT @kazweida: So what you’re saying is Trump will take credit for renegotiating NAFTA with Canada when he didn’t actually renegotiate anyth…"	"en"	4210094173	"David McMillan"	"fantasyfbdriven"	
1046648184657735700	"1538375347662"	"@ayjwyzone @stahnyujin ouh im happy for her!!! thankyou btw :))"	"en"	1036211684581359600	"yuri enthusiast || ot12"	"yurizoneeee"	
1046648184645148700	"1538375347659"	"RT @bts_geek_stats: 💿 Hanteo Update: Final Sales for 180930 #BTS\n\nLOVE YOURSELF 結 'Answer' has sold 0.4k copies on Hanteo today and 971.2k…"	"en"	1014734912400719900	"thu"	"thu10462454"	
1046648184645328900	"1538375347659"	"RT @Andrew_Adonis: If Jeremy Hunt was up to being Foreign Secretary, he wouldn’t be making ludicrous comparisons of the EU to Soviet Russia…"	"en"	234931124	"NE man lost at sea 🇬🇧🏴󠁧󠁢󠁳󠁣󠁴󠁿🇪🇺🤝 #FBPE"	"nemanlostatsea"	
1046648184649351200	"1538375347660"	"RT @FootballFunnnys: Mission Accomplished. 😂😂 https://t.co/A3dZTIGhon"	"en"	2157969415	"Johnny"	"Jkon25"	
1046648184666091500	"1538375347664"	"To clinic i go again, because it’s getting worse 😣"	"en"	2538702194	"myrazainal."	"_myrazainal"	
1046648184674680800	"1538375347666"	"@ZODIDOG OMG so cute. A degu?"	"en"	1406016751	"⭐️Star Bedwitch Curl ⭐️"	"StarCur1"	
1046648184657731600	"1538375347662"	"RT @SadhyaSom1: @SRKs_Wolverine @AshishSolkar23 @SRKpePHD @Bharat_mungare @mehdi_nisar1 @BrijwaSRKman After MJ only SRK has been declared t…"	"en"	1001818597986066400	"AAMIR is my DOG"	"subhamd14"	
1046648167872311300	"1538375343660"	"RT @MefeaterM: Meagan Good 💕 https://t.co/RtsDQETra7"	"en"	269903588	"Dylan."	"JAY_aRRRRR"	
1046648188839460900	"1538375348659"	"RT @samkru_: I literally annoy everyone I know I want to be by myself forever and ever and ever"	"en"	2429402066	"⚡L E V I⚡"	"spaceboytrash"	
1046648188856201200	"1538375348663"	"RT @Acosta: ——&gt; Hundreds of Migrant Children Quietly Moved to a Tent Camp on the Texas Border, via @nytimes https://t.co/hVtpWNtCFz"	"en"	965664301028536300	"Tammie Croft"	"TammieCroft"	
1046648188852006900	"1538375348662"	"RT @lilcutehwi: \"we only appreciate them when we lose them.\" if only we could turn back time... but now, let's look at how far we've went i…"	"en"	988062969924730900	"Ca🌸"	"flowerwoons"	
1046648188831182800	"1538375348657"	"RT @ErikaRadionova4: Sometimes I said \"Sofija ,stop listening Shawn\" But I still listening because I'm not Sofija....  🙂 @ShawnMendes  Just…"	"en"	1009486758025842700	"🌹Erika🌹SHAWNN FOLLOW ME🌹"	"ErikaRadionova4"	
1046648188856229900	"1538375348663"	"How fucking cruel and sick do you have to be to do this... i cant even yell at my dog without feeling awful. Litera… https://t.co/AWCVRCntLg"	"en"	857740545128415200	"Chut🐥"	"Naaareeee"	
1046648188864737300	"1538375348665"	"It is 08:29 CEST now"	"en"	786792381953691600	"ً"	"yeonwvoo"	
1046648188847841300	"1538375348661"	"RT @seungminkim: NEW--&gt; in memo to all Senate Rs obtained by WaPo, Rachel Mitchell argues re Ford case: \"A 'he said, she said' case is incr…"	"en"	797372979248332800	"HeavyD33"	"hevD33"	
1046648188848009200	"1538375348661"	"RT @realTamTamara: @AceFortunato5 Kavanaugh was in Bush Admin and he’s very clean"	"en"	1850475218	"RICHARD RENO"	"RICHARDRENO2"	
1046648188843819000	"1538375348660"	"When you're on holiday in a caravan , is the only acceptable time to use Lynx Africa as air freshener in the toilet"	"en"	391653297	"Daz"	"darrenbizzle"	
1046648188843831300	"1538375348660"	"RT @TJRMakhetha: 😂😂😂I'd also like to know https://t.co/EsFpErO1xV"	"en"	478453722	"Megacy"	"SnareButhane"	
1046648188868931600	"1538375348666"	"@RPSashaBanksWWE @SashaBanksWWE she be riding thru the hood 🎶 https://t.co/oasQmCdY3D"	"en"	252774502	"MilyStar 7*"	"DayDreamThis"	
1046648188831060000	"1538375348657"	"If the situation were reversed and Issa came out about bein depressed and thats why she did something; if Nathan wa… https://t.co/GQbkh1Q4Kv"	"en"	751841504600084500	"The 7th D-mension"	"LifeInDMajor"	
1046648193058930700	"1538375349665"	"RT @cnotaces: Super Junior Doubles Down On Latin-Infused K-pop With 'Animals' via @forbes https://t.co/DD0uNysmPb\n\n#SUPERJUNIOR \n#OneMoreTi…"	"en"	3284488394	"ชาวสารขันฑ์🤞"	"msseronin"	
1046648193050701800	"1538375349663"	"RT @ddoctordoomm: This how you be in your room after you get a beating 😭 https://t.co/MawxruNQhz"	"en"	728583118072909800	"Uncle Ace"	"YoMommaLoveDope"	
1046648193042116600	"1538375349661"	"RT @k1ug3: OMFG, the Kavanaugh Bros on Reddit have gone genuinely crazy\n\nSource: https://t.co/sjEqc85OJJ https://t.co/1K1lMmY6OZ"	"en"	1046740962	"CA Conservative 🌐"	"cacameronGOP"	
1046648193059041300	"1538375349665"	"RT @lilpump: I finally made it"	"en"	2906842995	"Chance"	"Bosun10_"	
1046648193063276500	"1538375349666"	"RT @Logic301: Recorded Wu Tang Forever while I was on tour this summer https://t.co/Jm2gb3lhPS"	"en"	701395816	"Jedi Vij"	"vijiman007"	
1046648193058889700	"1538375349665"	"RT @j_bigboote: I love him. https://t.co/Uvt0p4QW8o"	"en"	2783393053	"Communist tweet sender"	"fool_ML"	
1046648193046458400	"1538375349662"	"RT @Josuetinho: Me listening to sad music relating to my current situation : https://t.co/c1nFndwiSa"	"en"	3638303655	"Nya🎋"	"yungnyaaa"	
1046648193038143500	"1538375349660"	"RT @shanesthiccies: “you’re scaring the children”\nexcuse me, as someone who was royally triggered and ruined by your ‘suicide forrest video…"	"en"	467073448	"𝖙𝖆𝖞𝖑𝖔𝖗🦔🍂🧦"	"bbgtaylor"	
1046648193059106800	"1538375349665"	"RT @cm_bagot: you must have memories of filming Poirot episodes in Morecambe/Lakes/Kirkby Lonsdale. https://t.co/EbGxtm2tl1"	"en"	995394262895296500	"Morecambe Eden Project Approved🌈🦋🐝🐬🐳🐋"	"EdenMorecambe"	
1046648197249040400	"1538375350664"	"RT @rssurjewala: #PublicLootModiSarkar Exposed!\n\n#Modinomics Explained -:\n\n1. Write Off Loans worth ₹3,16,500,00,00,000 from People’s Money…"	"en"	1027862731674669000	"Akhilesh Yadav"	"Akhiles61290691"	
1046648197236441100	"1538375350661"	"'Why do you always stay positive?', a friend asked another friend.\n_\nIMHO, no life is easy yo. Staying positive, as… https://t.co/AKH0RRnaYS"	"en"	39219612	"Neyna Rahmadani"	"neynarahma"	
1046648197245005800	"1538375350663"	"RT @bigbank78702: i fucked up when i showed you how hard i fucked with you, my fault though."	"en"	1881170456	"Johnny💎"	"john_capelli"	
1046648197236568000	"1538375350661"	"RT @highpanties: that butterfly tattoo is...alot https://t.co/ssXgIdY7vv"	"en"	816035971	"Mїcнaєl Assβєndєr🤴🏾🇯🇲"	"kaminoshogun"	
1046648201426526200	"1538375351660"	"RT @GlamandGore: SNATCH THESE WIGS ON OCTOBER 15th! REGAN, CARRIE &amp; CLARICE! AHHH!!🖤👻❤️ @BellamiHair https://t.co/ow7lEgSOOZ"	"en"	2864696659	"👻💀🎃 s po o k y da d DIE  🎃💀👻"	"ichpuchtli_"	
1046648201418362900	"1538375351658"	"RT @mizChartreuse: Yes I. Never corny; we can never hear this enough. Everybody really should stan for we cuz we birthed all y'all. The onl…"	"en"	710112474570367000	"Kidagakash 🔮🌀🌑"	"Avalldar"	
1046648201451900900	"1538375351666"	"RT @FortniteFunny: He hit that!! 😱\n\nCredit @ObeyGorb https://t.co/G0unz1Cc1c"	"en"	437930913	"Miz"	"MizSavage68"	
1046648201435074600	"1538375351662"	"(Kira Adams) Cute Sexy Hot Girl Come To Bang On Camera movie-13\n https://t.co/jrE2xsKZVP \n wipmi pre teens dog knot… https://t.co/KxYnokV80z"	"en"	2357769566	"Юлия Сорокина"	"salmomen89"	
1046648201430757400	"1538375351661"	"me vs trying to watch this fancam and getting distracted everytime LE starts rapping because she’s just that good.… https://t.co/jnql0Xx0JI"	"en"	980864046533455900	"haseul’s hoop earrings"	"seuIgioh"	
